…
                                        "total" ~ "industry",
                                        "imports" ~ "import",
                                        "net_tax_products" ~ "value_added"),
         output_sector_type = case_match(output_sector_name,
                                         "total" ~ "industry",
                                         "gross_capital_formation" ~ "final_demand",
                                         "exports" ~ "export")) |>
  relocate(input_sector_type, input_sector_name, output_sector_type, output_sector_name) |>
  fill(input_sector_type, output_sector_type,
       .direction = "up") |>
  drop_na(input_sector_type, output_sector_type) |>
  filter(!input_sector_name %in% c("total", "intermediate_consumption", "gva", "output"),
         !output_sector_name %in% c("total", "total_final_use"))
table_germany_1995
#> # A tibble: 132 × 5
#>    input_sector_type input_sector_name output_sector_type output_sector_name    
#>    <chr>             <fct>             <chr>              <chr>                 
#>  1 industry          agriculture_group industry           agriculture_group     
#>  2 industry          agriculture_group industry           industry_group        
#>  3 industry          agriculture_group industry           construction          
#>  4 industry          agriculture_group industry           trade_group           
#>  5 industry          agriculture_group industry           business_services_gro…
#>  6 industry          agriculture_group industry           other_services_group  
#>  7 industry          agriculture_group final_demand       final_consumption_hou…
#>  8 industry          agriculture_group final_demand       final_consumption_gov…
#>  9 industry          agriculture_group final_demand       inventory_change      
#> 10 industry          agriculture_group final_demand       gross_capital_formati…
#> # ℹ 122 more rows
#> # ℹ 1 more variable: value <int>
…
